<?xml version="1.0" standalone="no"?>
  <svg viewBox="0 0 1024 1024" version="1.1" xmlns="http://www.w3.org/2000/svg">
  <path d="M355.407046 92.836538m-92.736606 0a92.736606 92.736606 0 1 0 185.473212 0 92.736606 92.736606 0 1 0-185.473212 0Z" fill="#ffffff" p-id="10248"></path>
  <path d="M341.716405 594.293745l110.524446-6.395628c14.889821-0.899385 26.282034-13.690641 25.48258-28.580463L459.336001 242.834c-0.899385-14.889821-13.690641-26.282034-28.580463-25.48258L320.13116 223.747048c-14.889821 0.899385-26.282034 13.690641-25.48258 28.580462L313.135942 568.811164c0.899385 14.889821 13.690641 26.282034 28.580463 25.482581z" fill="#ffffff" p-id="10249"></path>
  <path d="M235.588953 495.561237c-2.997951 0-6.095833-0.299795-9.193715-1.099248L43.220455 451.391432c-21.485313-5.096516-34.876159-26.581829-29.779643-48.067142 5.096516-21.485313 26.581829-34.876159 48.067142-29.779643l152.795549 35.975408L298.445984 247.830585c10.193032-19.586611 34.3765-27.181419 53.963111-16.988387s27.181419 34.3765 16.988387 53.963111l-98.532644 189.270616c-6.795355 13.390846-20.585928 21.485313-35.275885 21.485312zM601.139065 403.823948c-6.795355 0-13.590709-1.698839-19.786474-5.196447l-171.582707-97.73319c-19.186884-10.892554-25.882307-35.375817-14.989753-54.562702 10.892554-19.186884 35.375817-25.882307 54.562701-14.989753l149.297941 85.041866 127.612765-91.937152c17.987704-12.891188 42.970626-8.793988 55.861813 9.093783 12.891188 17.987704 8.89392 42.970626-9.093784 55.861813l-148.498487 106.926906c-6.995218 4.996584-15.189616 7.494877-23.384015 7.494876zM344.614424 1024c-16.288865 0-31.578413-9.993169-37.574315-26.08217l-83.143164-224.646433c-3.397677-9.093784-3.297746-19.186884 0.199864-28.280668l74.848834-193.867473c7.994535-20.685859 31.078755-30.878891 51.764614-22.884357 20.585928 7.994535 30.878891 31.178686 22.884356 51.764614L304.14209 759.780619l77.846785 210.456133c7.69474 20.685859-2.898019 43.770079-23.68381 51.464819-4.396994 1.598907-9.093784 2.298429-13.690641 2.298429zM581.652386 961.442764c-12.391529 0-24.683127-5.796038-32.477798-16.58866L415.765785 760.180345c-4.396994-5.995901-6.995218-13.190983-7.494876-20.685859l-13.290915-191.868839c-1.498975-22.084903 15.089685-41.171855 37.074656-42.670831 22.48463-1.898702 41.171855 15.089685 42.670831 37.074656L487.316873 722.506099l126.71338 175.480043c12.991119 17.887772 8.89392 42.970626-8.993852 55.861813-7.09515 5.196448-15.289548 7.594808-23.384015 7.594809z" fill="#ffffff" p-id="10250"></path>
</svg>
